[gd_scene load_steps=3 format=2]

[ext_resource path="res://Asset/Object/asteroide 1.png" type="Texture" id=1]
[ext_resource path="res://Asteroid/Asteroid.gd" type="Script" id=2]

[node name="Asteroid" type="RigidBody2D" groups=["containsOre"]]
position = Vector2( 235, 126 )
gravity_scale = 0.0
contacts_reported = 8
contact_monitor = true
script = ExtResource( 2 )

[node name="Sprite" type="Sprite" parent="."]
texture = ExtResource( 1 )

[node name="Area" type="Area2D" parent="."]

[node name="Mining" type="Timer" parent="."]
wait_time = 0.1

[connection signal="timeout" from="Mining" to="." method="_on_Mining_timeout"]
